// Jest Snapshot v1, https://goo.gl/fbAQLP

exports[`Field Date Change Value 1`] = `ShallowWrapper {}`;

exports[`Field Date Change Value with String Value 1`] = `ShallowWrapper {}`;

exports[`Field Date renders correctly 1`] = `
<div
  className="cdx-datepicker 'long' "
  direction="column"
  style={Object {}}
>
  <div
    align="end"
    className="MuiGrid-root label MuiGrid-container MuiGrid-justify-xs-space-between"
  >
    <p
      style={
        Object {
          "color": "#00000000",
        }
      }
    >
      .
    </p>
  </div>
  <input
    block={false}
    className="cdx-input long"
    dateFormat="DD-MM-YYYY"
    error=""
    field={Object {}}
    isRange={false}
    label=""
    long={true}
    onClick={[Function]}
    required={false}
    small={false}
    style={Object {}}
    touched={false}
    type="text"
    useFormattedValue={false}
    value=""
  />
</div>
`;

exports[`Field Date renders with error 1`] = `
<div
  className="cdx-datepicker 'block' "
  direction="column"
  style={Object {}}
>
  <div
    align="end"
    className="MuiGrid-root label MuiGrid-container MuiGrid-justify-xs-space-between"
  >
    <p
      style={
        Object {
          "color": "#00000000",
        }
      }
    >
      .
    </p>
  </div>
  <input
    block={true}
    className="cdx-input error-input small block"
    dateFormat="DD-MM-YYYY"
    error="this is error message"
    field={Object {}}
    isRange={false}
    label=""
    long={false}
    onClick={[Function]}
    required={true}
    small={true}
    style={Object {}}
    touched={true}
    type="text"
    useFormattedValue={false}
    value=""
  />
  <div
    className=" undefined"
  >
    this is error message
  </div>
</div>
`;
