<svg xmlns="http://www.w3.org/2000/svg" width="24" height="24" viewBox="0 0 24 24">
    <path fill="#1E2025" fill-rule="nonzero" d="M8.683 12.076l5.62 5.217a.67.67 0 0 0 .912-.982l-4.562-4.235a.74.74 0 0 1 0-1.085l4.605-4.277a.67.67 0 0 0-.912-.982l-5.663 5.259a.74.74 0 0 0 0 1.085z"/>
</svg>
