<svg xmlns="http://www.w3.org/2000/svg" width="24" height="24" viewBox="0 0 24 24">
    <path fill="#289F97" fill-rule="nonzero" d="M7.307 3h8.433a.74.74 0 0 1 .463.162l4.52 3.616a.74.74 0 0 1 .277.578V20.26a.74.74 0 0 1-.74.74H3.74a.74.74 0 0 1-.74-.74V7.307a.74.74 0 0 1 .217-.524l3.566-3.566A.74.74 0 0 1 7.307 3zM19.76 8.24H4.24v11.52h15.52V8.24zM19.015 7l-3.45-2.76H7.514L4.754 7h14.261zM9.62 10h4.76a.62.62 0 0 1 0 1.24H9.62a.62.62 0 0 1 0-1.24z"/>
</svg>
