<svg xmlns="http://www.w3.org/2000/svg" width="24" height="20" viewBox="0 0 24 20">
    <g fill="#289F97" fill-rule="evenodd">
        <path fill-rule="nonzero" d="M18 3.39h-1.08v-.984a.403.403 0 0 0-.4-.406c-.221 0-.4.182-.4.406v.984H7.88v-.984A.403.403 0 0 0 7.48 2c-.221 0-.4.182-.4.406v.984H6c-1.103 0-2 .923-2 2.042V15.98c.002 1.117.896 2.021 1.997 2.019H18c1.101.003 1.997-.9 2-2.016V5.432c0-1.12-.897-2.042-2-2.042zm1.2 12.591a1.202 1.202 0 0 1-1.196 1.207H6a1.202 1.202 0 0 1-1.2-1.203V5.432c0-.672.538-1.23 1.2-1.23h1.08v1.424c0 .224.179.406.4.406.221 0 .4-.182.4-.406V4.202h8.24v1.424c0 .224.179.406.4.406.221 0 .4-.182.4-.406V4.202H18c.662 0 1.2.558 1.2 1.23V15.98z"/>
        <path d="M16.517 10.923H7.791c-.225 0-.406.207-.406.462 0 .254.181.461.406.461h8.726c.224 0 .406-.207.406-.461 0-.255-.182-.462-.406-.462zM16.517 14H7.791c-.225 0-.406.207-.406.462 0 .254.181.461.406.461h8.726c.224 0 .406-.207.406-.461 0-.255-.182-.462-.406-.462zM7.79 9.077h4.727c.224 0 .406-.207.406-.462s-.182-.461-.406-.461H7.791c-.225 0-.406.206-.406.461s.181.462.406.462z"/>
    </g>
</svg>
