<svg xmlns="http://www.w3.org/2000/svg" width="18" height="18" viewBox="0 0 18 18">
    <path fill="#74B816" fill-rule="nonzero" d="M9 18A9 9 0 1 1 9 0a9 9 0 0 1 0 18zm-1.357-7.643L5.52 8.236A1 1 0 1 0 4.107 9.65l2.829 2.828a1 1 0 0 0 1.414 0l5.657-5.657a1 1 0 0 0-1.415-1.414l-4.95 4.95z"/>
</svg>
