<svg xmlns="http://www.w3.org/2000/svg" width="24" height="24" viewBox="0 0 24 24">
    <path fill="#1E2025" fill-rule="evenodd" d="M11.45 20H9.5l2.036-11.72h1.95L11.45 20zm.466-14.796c.007-.34.115-.621.324-.845.21-.224.484-.343.824-.358.173-.007.33.017.47.07a1.045 1.045 0 0 1 .607.607c.055.141.082.295.082.46-.008.34-.118.618-.33.835-.214.216-.49.332-.83.346-.339.015-.617-.083-.833-.292-.217-.21-.322-.484-.314-.823z"/>
</svg>
