// Jest Snapshot v1, https://goo.gl/fbAQLP

exports[`Field Input renders correctly (not required) 1`] = `
<div
  className="undefined undefined "
  style={Object {}}
>
  <div
    className="MuiGrid-root MuiGrid-container MuiGrid-justify-xs-space-between"
  >
    <p
      style={
        Object {
          "color": "#00000000",
        }
      }
    >
      .
    </p>
    <span>
      (optional)
    </span>
  </div>
  <input
    block={false}
    decimal={false}
    error=""
    field={Object {}}
    info=""
    label=""
    limit={700}
    long={true}
    max={12}
    onBlur={[Function]}
    onChange={[Function]}
    onFocus={[Function]}
    onKeyDown={[Function]}
    required={false}
    small={false}
    style={Object {}}
    timePattern={
      Array [
        "h",
        "m",
      ]
    }
    touched={false}
    type="text"
    value=""
  />
</div>
`;

exports[`Field Input renders correctly 1`] = `
<div
  className="undefined "
  style={Object {}}
>
  <div
    className="MuiGrid-root MuiGrid-container MuiGrid-justify-xs-space-between"
  >
    <p
      style={
        Object {
          "color": "#00000000",
        }
      }
    >
      .
    </p>
  </div>
  <input
    block={false}
    decimal={false}
    error=""
    field={
      Object {
        "name": "fname",
        "onBlur": [Function],
        "onChange": [Function],
        "value": undefined,
      }
    }
    form={
      Object {
        "dirty": false,
        "errors": Object {},
        "handleBlur": [Function],
        "handleChange": [Function],
        "handleReset": [Function],
        "handleSubmit": [Function],
        "initialValues": Object {},
        "isSubmitting": false,
        "isValid": false,
        "isValidating": false,
        "registerField": [Function],
        "resetForm": [Function],
        "setError": [Function],
        "setErrors": [Function],
        "setFieldError": [Function],
        "setFieldTouched": [Function],
        "setFieldValue": [Function],
        "setFormikState": [Function],
        "setStatus": [Function],
        "setSubmitting": [Function],
        "setTouched": [Function],
        "setValues": [Function],
        "status": undefined,
        "submitCount": 0,
        "submitForm": [Function],
        "touched": Object {},
        "unregisterField": [Function],
        "validateField": [Function],
        "validateForm": [Function],
        "validateOnBlur": true,
        "validateOnChange": true,
        "values": Object {},
      }
    }
    info=""
    label=""
    limit={700}
    long={false}
    max={12}
    name="fname"
    onBlur={[Function]}
    onChange={[Function]}
    onFocus={[Function]}
    onKeyDown={[Function]}
    required={true}
    small={false}
    style={Object {}}
    timePattern={
      Array [
        "h",
        "m",
      ]
    }
    touched={false}
    type="text"
    value=""
  />
</div>
`;

exports[`Field Input renders with block width 1`] = `
<div
  className="undefined undefined "
  style={Object {}}
>
  <div
    className="MuiGrid-root MuiGrid-container MuiGrid-justify-xs-space-between"
  >
    <p>
      Time Input
       
    </p>
    <span>
      (optional)
    </span>
  </div>
  <input
    block={true}
    decimal={false}
    error=""
    field={Object {}}
    info=""
    label="Time Input"
    limit={700}
    long={false}
    max={12}
    onBlur={[Function]}
    onChange={[Function]}
    onFocus={[Function]}
    onKeyDown={[Function]}
    required={false}
    small={false}
    style={Object {}}
    timePattern={
      Array [
        "h",
        "m",
      ]
    }
    touched={false}
    type="text"
    value=""
  />
</div>
`;

exports[`Field Input renders with error 1`] = `
<div
  className="undefined "
  style={Object {}}
>
  <div
    className="MuiGrid-root MuiGrid-container MuiGrid-justify-xs-space-between"
  >
    <p
      style={
        Object {
          "color": "#00000000",
        }
      }
    >
      .
    </p>
  </div>
  <input
    block={false}
    className="undefined undefined undefined"
    decimal={false}
    error="this is error message"
    field={Object {}}
    info=""
    label=""
    limit={700}
    long={false}
    max={12}
    onBlur={[Function]}
    onChange={[Function]}
    onFocus={[Function]}
    onKeyDown={[Function]}
    required={true}
    small={true}
    style={Object {}}
    timePattern={
      Array [
        "h",
        "m",
      ]
    }
    touched={true}
    type="text"
    value=""
  />
  <div
    className=" undefined"
  >
    this is error message
  </div>
</div>
`;
