// Jest Snapshot v1, https://goo.gl/fbAQLP

exports[`Component component renders correctly when loading 1`] = `
Array [
  <main>
    <img
      src="/assets/codex-logo.svg"
    />
    <h6>
      Dashboard Performance
    </h6>
    <a
      href="/"
    >
      <section>
        <img
          src="/assets/icons/box.svg"
          title="Product"
        />
        <h5>
          Product
        </h5>
      </section>
    </a>
    <a
      href="/project?sort=-startDate"
    >
      <section>
        <img
          src="/assets/icons/news.svg"
          title="Project"
        />
        <h5>
          Project
        </h5>
      </section>
    </a>
    <a
      href="/business-idea"
    >
      <section>
        <img
          src="/assets/icons/box.svg"
          title="Business Idea"
        />
        <h5>
          Business Idea
        </h5>
      </section>
    </a>
    <a
      href="/tribe-zero"
    >
      <section>
        <img
          src="/assets/icons/news.svg"
          title="Tribe Zero"
        />
        <h5>
          Tribe Zero
        </h5>
      </section>
    </a>
    <section>
      <a
        id="logout-button"
        onClick={[Function]}
      >
        <section>
          <img
            className="undefined undefined"
            src="/assets/icons/logout.svg"
            title="logout"
          />
          <h6>
            Sign Out
          </h6>
        </section>
      </a>
    </section>
  </main>,
  <main>
    <main>
      <header>
        <div
          aria-label="disabled tabs example"
          className="MuiTabs-root"
        >
          <div
            className="MuiTabs-scroller MuiTabs-fixed"
            onScroll={[Function]}
            style={
              Object {
                "marginBottom": null,
                "overflow": "hidden",
              }
            }
          >
            <div
              className="MuiTabs-flexContainer"
              role="tablist"
            >
              <button
                aria-selected={true}
                className="MuiButtonBase-root MuiTab-root MuiTab-textColorPrimary Mui-selected"
                disabled={false}
                onBlur={[Function]}
                onClick={[Function]}
                onDragLeave={[Function]}
                onFocus={[Function]}
                onKeyDown={[Function]}
                onKeyUp={[Function]}
                onMouseDown={[Function]}
                onMouseLeave={[Function]}
                onMouseUp={[Function]}
                onTouchEnd={[Function]}
                onTouchMove={[Function]}
                onTouchStart={[Function]}
                role="tab"
                tabIndex={0}
                type="button"
              >
                <span
                  className="MuiTab-wrapper"
                >
                  <span>
                    Member
                  </span>
                </span>
                <span
                  className="PrivateTabIndicator-root-25 PrivateTabIndicator-colorPrimary-26 MuiTabs-indicator"
                  style={Object {}}
                />
              </button>
              <button
                aria-selected={false}
                className="MuiButtonBase-root MuiTab-root MuiTab-textColorPrimary"
                disabled={false}
                onBlur={[Function]}
                onClick={[Function]}
                onDragLeave={[Function]}
                onFocus={[Function]}
                onKeyDown={[Function]}
                onKeyUp={[Function]}
                onMouseDown={[Function]}
                onMouseLeave={[Function]}
                onMouseUp={[Function]}
                onTouchEnd={[Function]}
                onTouchMove={[Function]}
                onTouchStart={[Function]}
                role="tab"
                tabIndex={0}
                type="button"
              >
                <span
                  className="MuiTab-wrapper"
                >
                  <span>
                    OKR
                  </span>
                </span>
              </button>
            </div>
          </div>
        </div>
      </header>
      <div
        hidden={false}
        index={1}
        role="tabpanel"
        value={0}
      >
        
      </div>
      <div
        hidden={true}
        index={1}
        role="tabpanel"
        value={0}
      />
    </main>
  </main>,
]
`;

exports[`Component component renders correctly when loading with any query 1`] = `
Array [
  <main>
    <img
      src="/assets/codex-logo.svg"
    />
    <h6>
      Dashboard Performance
    </h6>
    <a
      href="/"
    >
      <section>
        <img
          src="/assets/icons/box.svg"
          title="Product"
        />
        <h5>
          Product
        </h5>
      </section>
    </a>
    <a
      href="/project?sort=-startDate"
    >
      <section>
        <img
          src="/assets/icons/news.svg"
          title="Project"
        />
        <h5>
          Project
        </h5>
      </section>
    </a>
    <a
      href="/business-idea"
    >
      <section>
        <img
          src="/assets/icons/box.svg"
          title="Business Idea"
        />
        <h5>
          Business Idea
        </h5>
      </section>
    </a>
    <a
      href="/tribe-zero"
    >
      <section>
        <img
          src="/assets/icons/news.svg"
          title="Tribe Zero"
        />
        <h5>
          Tribe Zero
        </h5>
      </section>
    </a>
    <section>
      <a
        id="logout-button"
        onClick={[Function]}
      >
        <section>
          <img
            className="undefined undefined"
            src="/assets/icons/logout.svg"
            title="logout"
          />
          <h6>
            Sign Out
          </h6>
        </section>
      </a>
    </section>
  </main>,
  <main>
    <main>
      <header>
        <div
          aria-label="disabled tabs example"
          className="MuiTabs-root"
        >
          <div
            className="MuiTabs-scroller MuiTabs-fixed"
            onScroll={[Function]}
            style={
              Object {
                "marginBottom": null,
                "overflow": "hidden",
              }
            }
          >
            <div
              className="MuiTabs-flexContainer"
              role="tablist"
            >
              <button
                aria-selected={true}
                className="MuiButtonBase-root MuiTab-root MuiTab-textColorPrimary Mui-selected"
                disabled={false}
                onBlur={[Function]}
                onClick={[Function]}
                onDragLeave={[Function]}
                onFocus={[Function]}
                onKeyDown={[Function]}
                onKeyUp={[Function]}
                onMouseDown={[Function]}
                onMouseLeave={[Function]}
                onMouseUp={[Function]}
                onTouchEnd={[Function]}
                onTouchMove={[Function]}
                onTouchStart={[Function]}
                role="tab"
                tabIndex={0}
                type="button"
              >
                <span
                  className="MuiTab-wrapper"
                >
                  <span>
                    Member
                  </span>
                </span>
                <span
                  className="MuiTouchRipple-root"
                />
              </button>
              <button
                aria-selected={false}
                className="MuiButtonBase-root MuiTab-root MuiTab-textColorPrimary"
                disabled={false}
                onBlur={[Function]}
                onClick={[Function]}
                onDragLeave={[Function]}
                onFocus={[Function]}
                onKeyDown={[Function]}
                onKeyUp={[Function]}
                onMouseDown={[Function]}
                onMouseLeave={[Function]}
                onMouseUp={[Function]}
                onTouchEnd={[Function]}
                onTouchMove={[Function]}
                onTouchStart={[Function]}
                role="tab"
                tabIndex={0}
                type="button"
              >
                <span
                  className="MuiTab-wrapper"
                >
                  <span>
                    OKR
                  </span>
                </span>
                <span
                  className="MuiTouchRipple-root"
                />
              </button>
            </div>
            <span
              className="PrivateTabIndicator-root-25 PrivateTabIndicator-colorPrimary-26 MuiTabs-indicator"
              style={
                Object {
                  "left": 0,
                  "width": 0,
                }
              }
            />
          </div>
        </div>
      </header>
      <div
        hidden={false}
        index={1}
        role="tabpanel"
        value={0}
      >
        
      </div>
      <div
        hidden={true}
        index={1}
        role="tabpanel"
        value={0}
      />
    </main>
  </main>,
]
`;
