<?xml version="1.0" encoding="utf-8"?>
<!-- Generator: Adobe Illustrator 22.1.0, SVG Export Plug-In . SVG Version: 6.00 Build 0)  -->
<svg version="1.1" id="Layer_6" xmlns="http://www.w3.org/2000/svg" xmlns:xlink="http://www.w3.org/1999/xlink" x="0px" y="0px"
	 viewBox="0 0 940 768" style="enable-background:new 0 0 940 768;" xml:space="preserve">
<style type="text/css">
	.st0{fill:#0B3C39;}
	.st1{fill:#FAD7AE;}
	.st2{fill:#F5F7FA;}
	.st3{fill:#116963;}
	.st4{fill:#289F97;}
	.st5{fill:#6DD9D2;}
	.st6{fill:#A6EDE9;}
	.st7{fill:#E4F7F6;}
	.st8{fill:#F55151;}
	.st9{fill:#56C281;}
	.st10{opacity:0.2;fill:#1E2025;enable-background:new    ;}
	.st11{opacity:0.2;fill:#092A28;enable-background:new    ;}
	.st12{opacity:0.2;enable-background:new    ;}
	.st13{fill:#1E2025;}
</style>
<g id="bg">
	<path id="color-bg-2" class="st5" d="M865.7,473.4c-3-6.9-10-9.9-15.7-11.3c-10.4-2.6-21.3-2.9-31.8-4c-3.8-0.4-7.6-0.7-11.4-1.1
		c-397.1-38.1-719.6,29.1-719.6,29.1c-9.9,3.5-19.7,8.3-28.3,15.4c-2.7,2.2-4.6,5.8-5.1,9.9c-0.9,7.2,1.8,17.8,22.9,22.5
		c5.8,1.3,11.7,2.6,17.5,3.9c5.3,1.2,11.1,1.8,16.3,3.7c5.6,2.1,6.9,6.7,6.1,11.6c0.9-5.1,4-9.5,8.7-11.7
		c57.9-28.1,164.9-57.3,335-65.6c160.8-7.9,251.7,13.1,325,32.1c14.9,3.9,16.1,24.6,1.7,30.1c-0.1,0.1-0.3,0.1-0.4,0.2
		c-1.2,0.5-2.6,1-4,1.5c1.4-0.5,2.8-1,4-1.5c17.3-6.7,35-12.3,51.2-22.8c7.9-5.1,15.4-11.4,21.8-19.3
		C864.3,490.3,869.5,482,865.7,473.4z"/>
	<path id="color-bg-3" class="st7" d="M785.3,507.8c-73.3-19.1-164.1-40-324.9-32.1c-170.2,8.3-277.1,37.5-335,65.6
		c-4.7,2.3-7.8,6.7-8.7,11.8c-1.1,6.3-5.9,13.2-10.2,15.9c-6.7,4.3-14.5,5.5-20.4,11.7c-5.6,5.8-7.3,15-4.5,23.5
		c3,9.3,9.7,15.1,17.2,17.4c10.1,3.2,21.1,1.5,31.4,1.3c11.4-0.2,22.9-0.2,34.3,0c7.8,0.1,15.5,0.4,23.3,0.7c7,0.3,14,0.7,20.9,1.1
		c2.5,0.2,31.2,3,50,8.2c6.2,1.7,11.9,5.1,16.1,10c5.5,6.4,20.6,15.6,44.3,23.3c33.7,10.9,85.1,18.6,151.9,10.8
		c119.5-14,90.6-60.1,195.8-71.3c0.3,0,0.7-0.1,1-0.1c19.1-0.8,38.1-2,57.2-3.5c9.9-0.8,20.5-0.5,30.2-3.2
		c5.8-1.6,12.7-5.6,13.5-14.2c1-10.6-9-18.4-6.3-28.9c2.9-11.6,16.4-14.8,24.2-17.8c0.1-0.1,0.3-0.1,0.4-0.2
		C801.4,532.4,800.2,511.7,785.3,507.8z"/>
	<path id="color-bg-1" class="st6" d="M785.3,348.2c-7.2-8.8-15.3-16.3-22.1-25.7c-6.9-9.6-11.4-21.2-15-33.3
		c-6.2-21-10.9-43.1-23.7-59.4c-22.9-29.2-59.3-32.9-89.4-26.1c-10.7,2.4-21.1,6.2-31.8,8.4c-11,2.3-22,2.5-33-0.2
		c-20-5.1-38.3-18.2-54.6-33.7c-15.6-14.8-29.7-32.3-46.8-44.4c-16.8-11.9-35.4-16-54.3-12.4c-40.5,7.7-70.2,45.4-95.9,83.4
		c-11.9,17.6-24.1,35.9-40,47.8c-8.7,6.5-18.2,10.7-28.3,11.8c-11.2,1.2-22.3-0.9-33.2-3.8c-18.6-5-36.9-12.4-56.1-11.9
		c-16.1,0.5-32.6,6.5-43.1,23.1c-10.5,16.7-12.4,38.9-15.3,59.3c-1.5,11.2-3.3,22.5-7,32.9c-4.1,11.6-10.7,21-16.9,30.6
		c-9.7,15-19.6,35-13.4,55.2c2.6,8.6,8.1,13.1,14.1,17.4c5.5,3.9,13,10,10.5,18.1c-0.9,0.3-1.8,0.6-2.6,0.9
		c0,0,322.5-67.2,719.6-29.1C815.9,419.2,807.7,375.8,785.3,348.2z"/>
</g>
<g id="pot_2_">
	<path id="color_3_4_" class="st7" d="M101.7,417.6c0,0,12.2-2.1,16.7,10s40.3,74.8-2.9,85.6c-43.2,10.8-41.7-38.6-27.1-83.4
		C91.4,423.2,93.2,418.3,101.7,417.6z"/>
	<path id="color_2_7_" class="st4" d="M169.3,313.3c-6.7-3.5-16.7,3.7-20.7,6.2c-4.1,2.5-12.8,5.5-21.3,12.8
		c-8.5,7.3-7.9,23.1-8.3,27.3c-0.3,4.3-2.3,7.7-5.3,10.4c-2.9,2.8-3.8,5.3-4.5,10.2c-0.8,4.8-4,12-4.8,18.2
		c-0.7,4.7-0.2,14.6-0.1,19.2c2.1,0.1,4.9,0.5,7.6,2.1c4.4-5,14.7-14,21.3-19.2c7.9-6.2,9.5-17.6,11.8-21.7s11.1-7.4,15.3-11
		c4.1-3.6,7-14.2,6.3-20.8c-0.6-6.7,3.3-15.6,4-18.4C171.4,325.7,176.1,316.7,169.3,313.3z"/>
	<path id="color_1_7_" class="st3" d="M87.4,410.6c2.7,4.6,4.7,7.9,6.7,9.9c1.5-1.3,3.3-2.2,5.8-2.6c0-0.5-0.1-0.9-0.1-1.4
		c-0.5-5.3-1.4-18.5,1.6-26.9s8.5-20.8,3.7-23.4c-4.8-2.5-14.3-5.2-14.1-12.5c0.3-7.3,1.9-34.2-3.7-39.3
		c-5.6-5.2-12.6-8.7-24.7-10.5c-12-1.7-31.3-20.1-39.6-14c-8.3,6.1,0.3,21.8-2.3,26.6c-2.5,4.8-10.2,6.3-8.8,15.7
		c1.4,9.5,8.9,13.5,19.6,18.8c10.7,5.2,16.4,9.1,16,15.4s-4.6,11.2,1,16.4C54,387.8,82.3,402,87.4,410.6z"/>
	<g id="SHADE_8_">
		<path class="st11" d="M126.7,508.2c-3,2.1-6.6,3.9-11.2,5c-10.2,2.5-17.8,1.8-23.4-1.5c-4.8,1.2-7.7,2.5-7.6,3.6
			c0.2,2.2,12.1,3,26.5,1.6c14.4-1.3,26-4.3,25.8-6.5C136.7,509.1,132.8,508.4,126.7,508.2z"/>
		<path class="st11" d="M80.2,376.8c8.4,17.5,13.8,31.3,17.2,41.7c0.3-0.1,0.5-0.1,0.8-0.3c-3.5-10.8-8-21.7-12.8-32.2
			c0.9-10.1,7.1-15.5,7.2-15.5c0.2-0.1,0.2-0.4,0-0.7c-0.1-0.2-0.4-0.2-0.7,0c-0.3,0.2-6,5-7.4,14.7c-1.3-2.8-2.6-5.4-3.8-8.1
			c0,0,0,0,0-0.1c-4.6-9.4-9.3-18.3-13.4-25.8c-1.2-2.1-2.4-4.3-3.5-6.2c-1.2-12.6,10-25.8,10.1-25.9c0.2-0.2,0.1-0.5-0.1-0.6
			c-0.2-0.2-0.5-0.1-0.6,0.1c0,0-2.9,3.4-5.6,8.4c-2.3,4.2-4.8,10.2-4.8,16.4c-4.7-8-8.6-14.6-11.4-19c-1.9-3-3.7-5.7-5-7.7
			c-1.9-2.9-2.1-3-2.3-3s-0.5,0-0.5,0.3c-0.1,0.2,0,0.4,0.2,0.5c0.6,0.6,6.3,9.1,14.2,22.3c-8-4.6-29.1-7.2-30.1-7.3
			c-0.3-0.1-0.5,0.1-0.5,0.4s0.1,0.5,0.4,0.5c0.1,0,6.4,0.8,13.4,2.2c9.2,1.8,15.4,3.9,17.8,6c1.2,2.1,2.6,4.4,4,6.8l0,0
			c1.2,2.2,2.6,4.6,3.9,7c4.6,8.4,8.7,16.1,12.2,23.4c-6-3.7-17.6-3.8-18.2-3.4c-0.2,0.1-0.3,0.4-0.2,0.6s0.3,0.3,0.6,0.2
			c0.4,0,3.8-0.2,7.9,0.4C72.8,373.4,77.6,374.5,80.2,376.8z"/>
		<path class="st11" d="M154.9,356.5c0,0-4.6,0.6-9.2,1.3c-5.5,0.8-7.9,1.3-8.9,1.6c6.6-11.1,12.1-18.2,16.1-22.5
			c0.2-0.2,0.1-0.5-0.1-0.6c-0.2-0.2-0.5-0.1-0.6,0.1c-5.2,5.5-10.2,12.7-14.8,20.3l-2.4-16c0-0.3-0.2-0.4-0.5-0.3
			c-0.3,0-0.4,0.2-0.3,0.5l2.5,16.5c0,0.1,0.1,0.3,0.2,0.4c-6,10.1-11.5,20.9-15.6,29.9l-2.8-12.9c0-0.3-0.3-0.3-0.5-0.3
			c-0.3,0-0.3,0.3-0.3,0.5l3.1,14c-6.2,13.5-10.6,25.1-12.2,29.3c0.3,0.1,0.6,0.1,0.9,0.3c1.3-3.6,4.8-12.6,9.6-23.5
			c0.1,0,0.1,0.1,0.2,0.1l0.1,0c0,0,3.3-1.3,6.6-2.7c6.8-2.9,6.9-3.2,6.8-3.5c0.1-0.3-0.1-0.5-0.3-0.5c-0.2-0.1-0.4,0-0.4,0.2
			c-0.7,0.6-6.8,3.2-12.5,5.5c0.5-1.3,1.2-2.6,1.8-3.9l0,0c0,0,0,0,0-0.1c0-0.1,0.1-0.1,0.1-0.2c0,0,0-0.1,0.1-0.1c0,0,0,0,0-0.1
			c0.1-0.2,0.2-0.3,0.2-0.5c0.1-0.2,0.2-0.4,0.2-0.6l0.1-0.1c0.1-0.2,0.2-0.4,0.2-0.6c5.1-11.1,9.9-20.1,14.1-27.4
			c0.1,0.1,0.2,0.1,0.3,0.1c0.1,0,0.2,0,0.2-0.1c0.1,0,0.1-0.1,0.1-0.1c1.3-0.6,11.8-2.1,18.3-2.9c0.3,0,0.4-0.2,0.4-0.5
			C155.4,356.6,155.2,356.5,154.9,356.5z"/>
	</g>
</g>
<g>
	<path class="st7" d="M760.8,163.2H470.1c-6.3,0-11.4,5.1-11.4,11.4v174.6c0,6.3,5.1,11.4,11.4,11.4h290.7c6.3,0,11.4-5.1,11.4-11.4
		V174.5C772.2,168.3,767.1,163.2,760.8,163.2z"/>
	<g>
		<rect x="471" y="220.7" class="st3" width="66" height="24.7"/>
		<polygon class="st2" points="526.4,230.2 526.4,235.9 531,233 		"/>
		<rect x="475.3" y="223.8" class="st2" width="31.9" height="6.2"/>
		<rect x="475.3" y="233" class="st2" width="36.9" height="1.5"/>
		<rect x="475.3" y="236.2" class="st2" width="34.1" height="1.5"/>
		<rect x="475.3" y="239.3" class="st2" width="28.7" height="1.5"/>
		<path class="st9" d="M528.4,257.7h-49c-4.7,0-8.5-3.8-8.5-8.5v-3.8h66v3.8C536.9,253.9,533.1,257.7,528.4,257.7z"/>
		<rect x="487.4" y="250" class="st2" width="33" height="3.1"/>
		<path class="st4" d="M536.9,220.7h-66v-40.9c0-4.7,3.8-8.5,8.5-8.5h49c4.7,0,8.5,3.8,8.5,8.5V220.7z"/>
		<path class="st10" d="M509.3,202.7c4.8-2.1,8.1-6.8,8.1-12.3c0-7.4-6-13.4-13.4-13.4c-7.4,0-13.4,6-13.4,13.4
			c0,5.5,3.3,10.2,8.1,12.3c-4.8,2.1-8.1,6.8-8.1,12.3h26.8C517.4,209.5,514,204.8,509.3,202.7z"/>
	</g>
	<g>
		<rect x="545.3" y="220.7" class="st3" width="66" height="24.7"/>
		<polygon class="st2" points="600.8,230.2 600.8,235.9 605.3,233 		"/>
		<rect x="549.6" y="223.8" class="st2" width="31.9" height="6.2"/>
		<rect x="549.6" y="233" class="st2" width="36.9" height="1.5"/>
		<rect x="549.6" y="236.2" class="st2" width="34.1" height="1.5"/>
		<rect x="549.6" y="239.3" class="st2" width="28.7" height="1.5"/>
		<path class="st9" d="M602.8,257.7h-49c-4.7,0-8.5-3.8-8.5-8.5v-3.8h66v3.8C611.3,253.9,607.5,257.7,602.8,257.7z"/>
		<rect x="561.8" y="250" class="st2" width="33" height="3.1"/>
		<path class="st4" d="M611.3,220.7h-66v-40.9c0-4.7,3.8-8.5,8.5-8.5h49c4.7,0,8.5,3.8,8.5,8.5V220.7z"/>
		<path class="st10" d="M583.6,202.7c4.8-2.1,8.1-6.8,8.1-12.3c0-7.4-6-13.4-13.4-13.4c-7.4,0-13.4,6-13.4,13.4
			c0,5.5,3.3,10.2,8.1,12.3c-4.8,2.1-8.1,6.8-8.1,12.3h26.8C591.7,209.5,588.4,204.8,583.6,202.7z"/>
	</g>
	<g>
		<rect x="619.6" y="220.7" class="st3" width="66" height="24.7"/>
		<polygon class="st2" points="675.1,230.2 675.1,235.9 679.6,233 		"/>
		<rect x="624" y="223.8" class="st2" width="31.9" height="6.2"/>
		<rect x="624" y="233" class="st2" width="36.9" height="1.5"/>
		<rect x="624" y="236.2" class="st2" width="34.1" height="1.5"/>
		<rect x="624" y="239.3" class="st2" width="28.7" height="1.5"/>
		<path class="st8" d="M677.1,257.7h-49c-4.7,0-8.5-3.8-8.5-8.5v-3.8h66v3.8C685.6,253.9,681.8,257.7,677.1,257.7z"/>
		<rect x="636.1" y="250" class="st2" width="33" height="3.1"/>
		<path class="st4" d="M685.6,220.7h-66v-40.9c0-4.7,3.8-8.5,8.5-8.5h49c4.7,0,8.5,3.8,8.5,8.5V220.7z"/>
		<path class="st10" d="M658,202.7c4.8-2.1,8.1-6.8,8.1-12.3c0-7.4-6-13.4-13.4-13.4c-7.4,0-13.4,6-13.4,13.4
			c0,5.5,3.3,10.2,8.1,12.3c-4.8,2.1-8.1,6.8-8.1,12.3H666C666,209.5,662.7,204.8,658,202.7z"/>
	</g>
	<g>
		<rect x="694" y="220.7" class="st3" width="66" height="24.7"/>
		<polygon class="st2" points="749.4,230.2 749.4,235.9 754,233 		"/>
		<rect x="698.3" y="223.8" class="st2" width="31.9" height="6.2"/>
		<rect x="698.3" y="233" class="st2" width="36.9" height="1.5"/>
		<rect x="698.3" y="236.2" class="st2" width="34.1" height="1.5"/>
		<rect x="698.3" y="239.3" class="st2" width="28.7" height="1.5"/>
		<path class="st8" d="M751.5,257.7h-49c-4.7,0-8.5-3.8-8.5-8.5v-3.8h66v3.8C760,253.9,756.2,257.7,751.5,257.7z"/>
		<rect x="710.5" y="250" class="st2" width="33" height="3.1"/>
		<path class="st4" d="M760,220.7h-66v-40.9c0-4.7,3.8-8.5,8.5-8.5h49c4.7,0,8.5,3.8,8.5,8.5V220.7z"/>
		<path class="st10" d="M732.3,202.7c4.8-2.1,8.1-6.8,8.1-12.3c0-7.4-6-13.4-13.4-13.4c-7.4,0-13.4,6-13.4,13.4
			c0,5.5,3.3,10.2,8.1,12.3c-4.8,2.1-8.1,6.8-8.1,12.3h26.8C740.4,209.5,737.1,204.8,732.3,202.7z"/>
	</g>
	<g>
		<rect x="471" y="315.4" class="st3" width="66" height="24.7"/>
		<polygon class="st2" points="526.4,324.9 526.4,330.6 531,327.7 		"/>
		<rect x="475.3" y="318.5" class="st2" width="31.9" height="6.2"/>
		<rect x="475.3" y="327.7" class="st2" width="36.9" height="1.5"/>
		<rect x="475.3" y="330.9" class="st2" width="34.1" height="1.5"/>
		<rect x="475.3" y="334" class="st2" width="28.7" height="1.5"/>
		<path class="st8" d="M528.4,352.4h-49c-4.7,0-8.5-3.8-8.5-8.5v-3.8h66v3.8C536.9,348.6,533.1,352.4,528.4,352.4z"/>
		<rect x="487.4" y="344.7" class="st2" width="33" height="3.1"/>
		<path class="st4" d="M536.9,315.4h-66v-40.9c0-4.7,3.8-8.5,8.5-8.5h49c4.7,0,8.5,3.8,8.5,8.5V315.4z"/>
		<path class="st10" d="M509.3,297.4c4.8-2.1,8.1-6.8,8.1-12.3c0-7.4-6-13.4-13.4-13.4c-7.4,0-13.4,6-13.4,13.4
			c0,5.5,3.3,10.2,8.1,12.3c-4.8,2.1-8.1,6.8-8.1,12.3h26.8C517.4,304.2,514,299.4,509.3,297.4z"/>
	</g>
	<g>
		<rect x="545.3" y="315.4" class="st3" width="66" height="24.7"/>
		<polygon class="st2" points="600.8,324.9 600.8,330.6 605.3,327.7 		"/>
		<rect x="549.6" y="318.5" class="st2" width="31.9" height="6.2"/>
		<rect x="549.6" y="327.7" class="st2" width="36.9" height="1.5"/>
		<rect x="549.6" y="330.9" class="st2" width="34.1" height="1.5"/>
		<rect x="549.6" y="334" class="st2" width="28.7" height="1.5"/>
		<path class="st9" d="M602.8,352.4h-49c-4.7,0-8.5-3.8-8.5-8.5v-3.8h66v3.8C611.3,348.6,607.5,352.4,602.8,352.4z"/>
		<rect x="561.8" y="344.7" class="st2" width="33" height="3.1"/>
		<path class="st4" d="M611.3,315.4h-66v-40.9c0-4.7,3.8-8.5,8.5-8.5h49c4.7,0,8.5,3.8,8.5,8.5V315.4z"/>
		<path class="st10" d="M583.6,297.4c4.8-2.1,8.1-6.8,8.1-12.3c0-7.4-6-13.4-13.4-13.4c-7.4,0-13.4,6-13.4,13.4
			c0,5.5,3.3,10.2,8.1,12.3c-4.8,2.1-8.1,6.8-8.1,12.3h26.8C591.7,304.2,588.4,299.4,583.6,297.4z"/>
	</g>
	<g>
		<rect x="619.6" y="315.4" class="st3" width="66" height="24.7"/>
		<polygon class="st2" points="675.1,324.9 675.1,330.6 679.6,327.7 		"/>
		<rect x="624" y="318.5" class="st2" width="31.9" height="6.2"/>
		<rect x="624" y="327.7" class="st2" width="36.9" height="1.5"/>
		<rect x="624" y="330.9" class="st2" width="34.1" height="1.5"/>
		<rect x="624" y="334" class="st2" width="28.7" height="1.5"/>
		<path class="st8" d="M677.1,352.4h-49c-4.7,0-8.5-3.8-8.5-8.5v-3.8h66v3.8C685.6,348.6,681.8,352.4,677.1,352.4z"/>
		<rect x="636.1" y="344.7" class="st2" width="33" height="3.1"/>
		<path class="st4" d="M685.6,315.4h-66v-40.9c0-4.7,3.8-8.5,8.5-8.5h49c4.7,0,8.5,3.8,8.5,8.5V315.4z"/>
		<path class="st10" d="M658,297.4c4.8-2.1,8.1-6.8,8.1-12.3c0-7.4-6-13.4-13.4-13.4c-7.4,0-13.4,6-13.4,13.4
			c0,5.5,3.3,10.2,8.1,12.3c-4.8,2.1-8.1,6.8-8.1,12.3H666C666,304.2,662.7,299.4,658,297.4z"/>
	</g>
	<g>
		<rect x="694" y="315.4" class="st3" width="66" height="24.7"/>
		<polygon class="st2" points="749.4,324.9 749.4,330.6 754,327.7 		"/>
		<rect x="698.3" y="318.5" class="st2" width="31.9" height="6.2"/>
		<rect x="698.3" y="327.7" class="st2" width="36.9" height="1.5"/>
		<rect x="698.3" y="330.9" class="st2" width="34.1" height="1.5"/>
		<rect x="698.3" y="334" class="st2" width="28.7" height="1.5"/>
		<path class="st9" d="M751.5,352.4h-49c-4.7,0-8.5-3.8-8.5-8.5v-3.8h66v3.8C760,348.6,756.2,352.4,751.5,352.4z"/>
		<rect x="710.5" y="344.7" class="st2" width="33" height="3.1"/>
		<path class="st4" d="M760,315.4h-66v-40.9c0-4.7,3.8-8.5,8.5-8.5h49c4.7,0,8.5,3.8,8.5,8.5V315.4z"/>
		<path class="st10" d="M732.3,297.4c4.8-2.1,8.1-6.8,8.1-12.3c0-7.4-6-13.4-13.4-13.4c-7.4,0-13.4,6-13.4,13.4
			c0,5.5,3.3,10.2,8.1,12.3c-4.8,2.1-8.1,6.8-8.1,12.3h26.8C740.4,304.2,737.1,299.4,732.3,297.4z"/>
	</g>
</g>
<g>
	<path class="st4" d="M178.6,271.9c-6.3,0-11.4,5.1-11.4,11.4V365v81.8c0,6.3,5.1,11.4,11.4,11.4h56V365v-93.1H178.6z"/>
	<g>
		<rect x="234.5" y="271.9" class="st2" width="101" height="93.1"/>
		<path class="st2" d="M335.5,271.9h89.6c6.3,0,11.4,5.1,11.4,11.4V365h-101V271.9z"/>
		<rect x="234.5" y="365" class="st2" width="101" height="93.1"/>
		<path class="st2" d="M335.5,365h101v81.8c0,6.3-5.1,11.4-11.4,11.4h-89.6V365z"/>
	</g>
	<rect x="175.2" y="279.9" class="st2" width="41.7" height="16.1"/>
	<polygon class="st0" points="192.3,312 183.8,312 175.2,312 175.2,316 183.8,316 192.3,316 200.9,316 200.9,312 	"/>
	<polygon class="st2" points="195.7,304 185.5,304 175.2,304 175.2,308 185.5,308 195.7,308 205.9,308 205.9,304 	"/>
	<g>
		<polygon class="st4" points="245,279.9 244.4,279.9 243.7,279.9 243.7,281.9 243.7,283.9 243.7,285.9 244.4,285.9 245,285.9 
			245.7,285.9 245.7,283.9 245.7,281.9 245.7,279.9 		"/>
		<polygon class="st4" points="266.6,279.9 257.4,279.9 248.1,279.9 248.1,281.9 248.1,283.9 248.1,285.9 257.4,285.9 266.6,285.9 
			275.8,285.9 275.8,283.9 275.8,281.9 275.8,279.9 		"/>
		<polygon class="st4" points="286.1,293.9 264.9,293.9 243.7,293.9 243.7,296 243.7,298 243.7,300 264.9,300 286.1,300 307.2,300 
			307.2,298 307.2,296 307.2,293.9 		"/>
		<polygon class="st4" points="279.2,302.4 261.5,302.4 243.7,302.4 243.7,304.4 243.7,306.4 243.7,308.4 261.5,308.4 279.2,308.4 
			297,308.4 297,306.4 297,304.4 297,302.4 		"/>
		<polygon class="st4" points="282.7,310.8 263.2,310.8 243.7,310.8 243.7,312.8 243.7,314.8 243.7,316.8 263.2,316.8 282.7,316.8 
			302.2,316.8 302.2,314.8 302.2,312.8 302.2,310.8 		"/>
		<polygon class="st4" points="285,319.2 264.3,319.2 243.7,319.2 243.7,321.2 243.7,323.2 243.7,325.2 264.3,325.2 285,325.2 
			305.6,325.2 305.6,323.2 305.6,321.2 305.6,319.2 		"/>
		<polygon class="st0" points="264.3,342.9 254,342.9 243.7,342.9 243.7,344.9 243.7,346.9 243.7,348.9 254,348.9 264.3,348.9 
			274.7,348.9 274.7,346.9 274.7,344.9 274.7,342.9 		"/>
		<polygon class="st0" points="272.7,351.3 258.2,351.3 243.7,351.3 243.7,353.3 243.7,355.3 243.7,357.4 258.2,357.4 272.7,357.4 
			287.2,357.4 287.2,355.3 287.2,353.3 287.2,351.3 		"/>
	</g>
	<polygon class="st0" points="199.5,320 187.4,320 175.2,320 175.2,324 187.4,324 199.5,324 211.6,324 211.6,320 	"/>
	<polygon class="st0" points="190.4,328.1 182.8,328.1 175.2,328.1 175.2,332.1 182.8,332.1 190.4,332.1 198,332.1 198,328.1 	"/>
	<rect x="335" y="271.9" class="st7" width="1.1" height="186.3"/>
	<rect x="233.4" y="271.9" class="st2" width="2.3" height="186.3"/>
	<rect x="234.5" y="364.4" class="st7" width="202" height="1.1"/>
	<g>
		<polygon class="st4" points="345.5,279.9 344.8,279.9 344.1,279.9 344.1,281.9 344.1,283.9 344.1,285.9 344.8,285.9 345.5,285.9 
			346.1,285.9 346.1,283.9 346.1,281.9 346.1,279.9 		"/>
		<polygon class="st4" points="367,279.9 357.8,279.9 348.5,279.9 348.5,281.9 348.5,283.9 348.5,285.9 357.8,285.9 367,285.9 
			376.3,285.9 376.3,283.9 376.3,281.9 376.3,279.9 		"/>
	</g>
	<g>
		<polygon class="st4" points="245,373.6 244.4,373.6 243.7,373.6 243.7,375.6 243.7,377.6 243.7,379.6 244.4,379.6 245,379.6 
			245.7,379.6 245.7,377.6 245.7,375.6 245.7,373.6 		"/>
		<polygon class="st4" points="266.6,373.6 257.4,373.6 248.1,373.6 248.1,375.6 248.1,377.6 248.1,379.6 257.4,379.6 266.6,379.6 
			275.8,379.6 275.8,377.6 275.8,375.6 275.8,373.6 		"/>
	</g>
	<g>
		<polygon class="st4" points="345.5,373.6 344.8,373.6 344.1,373.6 344.1,375.6 344.1,377.6 344.1,379.6 344.8,379.6 345.5,379.6 
			346.1,379.6 346.1,377.6 346.1,375.6 346.1,373.6 		"/>
		<polygon class="st4" points="367,373.6 357.8,373.6 348.5,373.6 348.5,375.6 348.5,377.6 348.5,379.6 357.8,379.6 367,379.6 
			376.3,379.6 376.3,377.6 376.3,375.6 376.3,373.6 		"/>
	</g>
	<g>
		<rect x="243.8" y="385" class="st7" width="11.8" height="11.2"/>
		<rect x="255.6" y="385" class="st9" width="11.8" height="11.2"/>
		<rect x="267.4" y="385" class="st9" width="11.8" height="11.2"/>
		<rect x="279.2" y="385" class="st9" width="11.8" height="11.2"/>
		<rect x="290.9" y="385" class="st7" width="11.8" height="11.2"/>
		<rect x="302.7" y="385" class="st7" width="11.8" height="11.2"/>
		<rect x="314.5" y="385" class="st7" width="11.8" height="11.2"/>
		<rect x="243.8" y="395.9" class="st6" width="11.8" height="11.2"/>
		<rect x="255.6" y="395.9" class="st6" width="11.8" height="11.2"/>
		<rect x="267.4" y="396.2" class="st9" width="11.8" height="11.2"/>
		<rect x="279.2" y="396.2" class="st6" width="11.8" height="11.2"/>
		<rect x="290.9" y="396.2" class="st6" width="11.8" height="11.2"/>
		<rect x="302.7" y="396.2" class="st6" width="11.8" height="11.2"/>
		<rect x="314.5" y="396.2" class="st6" width="11.8" height="11.2"/>
		<rect x="243.8" y="407.4" class="st7" width="11.8" height="11.2"/>
		<rect x="255.6" y="407.4" class="st7" width="11.8" height="11.2"/>
		<rect x="267.4" y="407.4" class="st7" width="11.8" height="11.2"/>
		<rect x="279.2" y="407.4" class="st9" width="11.8" height="11.2"/>
		<rect x="290.9" y="407.4" class="st9" width="11.8" height="11.2"/>
		<rect x="302.7" y="407.4" class="st9" width="11.8" height="11.2"/>
		<rect x="314.5" y="407.4" class="st9" width="11.8" height="11.2"/>
		<rect x="243.8" y="418.5" class="st6" width="11.8" height="11.2"/>
		<rect x="255.6" y="418.5" class="st9" width="11.8" height="11.2"/>
		<rect x="267.4" y="418.5" class="st9" width="11.8" height="11.2"/>
		<rect x="279.2" y="418.5" class="st6" width="11.8" height="11.2"/>
		<rect x="290.9" y="418.5" class="st6" width="11.8" height="11.2"/>
		<rect x="302.7" y="418.5" class="st6" width="11.8" height="11.2"/>
		<rect x="314.5" y="418.5" class="st6" width="11.8" height="11.2"/>
		<rect x="243.8" y="429.7" class="st7" width="11.8" height="11.2"/>
		<rect x="255.6" y="429.7" class="st7" width="11.8" height="11.2"/>
		<rect x="267.4" y="429.7" class="st7" width="11.8" height="11.2"/>
		<rect x="279.2" y="429.7" class="st9" width="11.8" height="11.2"/>
		<rect x="290.9" y="429.7" class="st9" width="11.8" height="11.2"/>
		<rect x="302.7" y="429.7" class="st9" width="11.8" height="11.2"/>
		<rect x="314.5" y="429.7" class="st7" width="11.8" height="11.2"/>
		<rect x="243.8" y="440.9" class="st9" width="11.8" height="11.2"/>
		<rect x="255.6" y="440.9" class="st9" width="11.8" height="11.2"/>
		<rect x="267.4" y="440.9" class="st9" width="11.8" height="11.2"/>
		<rect x="279.2" y="440.9" class="st9" width="11.8" height="11.2"/>
		<rect x="290.9" y="440.9" class="st9" width="11.8" height="11.2"/>
		<rect x="302.7" y="440.9" class="st6" width="11.8" height="11.2"/>
		<rect x="314.5" y="440.9" class="st6" width="11.8" height="11.2"/>
	</g>
	<circle class="st3" cx="371" cy="326.7" r="28.5"/>
	<path class="st6" d="M397.3,337.8c0.1-0.2,0.1-0.3,0.2-0.5c0.2-0.5,0.4-1,0.6-1.6c0-0.1,0.1-0.1,0.1-0.2c0.2-0.6,0.4-1.2,0.5-1.8
		c0-0.1,0.1-0.3,0.1-0.4c0.1-0.5,0.2-1,0.3-1.5c0-0.1,0-0.2,0.1-0.3c0.1-0.6,0.2-1.2,0.3-1.8c0-0.1,0-0.2,0-0.3
		c0.1-0.5,0.1-1.1,0.1-1.6c0-0.1,0-0.2,0-0.3c0-0.6,0-1.2,0-1.9c0-0.1,0-0.1,0-0.2c0-0.6-0.1-1.1-0.1-1.7c0-0.1,0-0.2,0-0.3
		c-0.1-1.2-0.4-2.5-0.7-3.7c0-0.1,0-0.1-0.1-0.2c-0.3-1.2-0.7-2.4-1.2-3.6c0,0,0-0.1-0.1-0.1c-0.5-1.2-1.1-2.4-1.7-3.5
		c0,0,0,0,0-0.1c-0.7-1.1-1.4-2.2-2.2-3.3v0c-2.5-3.2-5.7-5.9-9.5-7.8c-14-7.1-31.2-1.5-38.3,12.5c-2.3,4.6-3.3,9.5-3,14.3l28.5-1.4
		l19.2,21c0,0,0,0,0,0c0.3-0.2,0.5-0.5,0.8-0.8c0.1-0.1,0.1-0.1,0.2-0.1c0.2-0.2,0.5-0.5,0.7-0.7c0.1-0.1,0.2-0.2,0.2-0.3
		c0.2-0.2,0.4-0.5,0.6-0.7c0.1-0.1,0.2-0.2,0.3-0.3c0.2-0.2,0.4-0.4,0.5-0.7c0.1-0.1,0.2-0.3,0.3-0.4c0.2-0.2,0.3-0.4,0.4-0.6
		c0.1-0.2,0.3-0.4,0.4-0.6c0.1-0.2,0.3-0.4,0.4-0.6c0.1-0.2,0.3-0.5,0.4-0.7c0.1-0.2,0.2-0.3,0.3-0.5c0.2-0.4,0.4-0.8,0.7-1.2
		c0,0,0,0,0,0C396.8,339,397,338.4,397.3,337.8z"/>
	<path class="st4" d="M342.6,328.1c0.5,9.9,6.1,19.2,15.6,24c5.4,2.7,11.2,3.6,16.8,2.8l-3.9-28.2L342.6,328.1z"/>
	<g>
		<rect x="404.1" y="316.1" class="st3" width="5.4" height="5.4"/>
		<rect x="411.9" y="316.1" class="st0" width="15.5" height="5.4"/>
		<rect x="411.9" y="324" class="st0" width="17.5" height="5.4"/>
		<rect x="411.9" y="331.8" class="st0" width="12.2" height="5.4"/>
		<rect x="404.1" y="324" class="st4" width="5.4" height="5.4"/>
		<rect x="404.1" y="331.8" class="st6" width="5.4" height="5.4"/>
	</g>
	<g>
		<rect x="351.5" y="421.7" class="st6" width="11.2" height="30.4"/>
		<rect x="370.7" y="409.4" class="st4" width="11.2" height="42.7"/>
		<rect x="389.9" y="416.6" class="st3" width="11.2" height="35.5"/>
		<rect x="409.4" y="393.5" class="st4" width="11.2" height="58.6"/>
	</g>
</g>
<g id="pot_3_">
	<path id="color_3_5_" class="st7" d="M848.5,405.6c13.2,48,13.7,101.1-28,89.4c-41.7-11.7-5.6-78.9-1-91.8
		c4.6-12.9,16.4-10.7,16.4-10.7C844.1,393.2,845.8,398.4,848.5,405.6z"/>
	<path id="color_2_8_" class="st4" d="M770.8,296.8c0.6,3.1,4.2,12.7,3.4,19.8c-0.7,7.1,1.8,18.5,5.7,22.3
		c3.9,3.9,12.5,7.4,14.6,11.8c2.1,4.4,3.4,16.6,10.9,23.3c6.3,5.6,16.1,15.3,20.3,20.6c2.7-1.7,5.5-2.1,7.5-2.2
		c0.2-4.9,0.9-15.5,0.3-20.6c-0.7-6.6-3.7-14.3-4.3-19.5c-0.6-5.3-1.4-8-4.2-11c-2.9-2.9-4.7-6.5-4.9-11.1
		c-0.2-4.5,0.7-21.5-7.4-29.3c-8-7.8-16.5-11-20.3-13.7c-3.8-2.7-13.4-10.4-19.9-6.7C765.9,284.1,770.2,293.8,770.8,296.8z"/>
	<path id="color_1_8_" class="st3" d="M888.3,355.2c5.5-5.5,1.6-10.8,1.3-17.6c-0.3-6.7,5.3-10.9,15.8-16.5s17.8-10,19.4-20.1
		s-5.8-11.7-8.2-16.9c-2.4-5.2,6.3-22-1.6-28.5c-7.9-6.5-27,13.2-38.7,15c-11.8,1.9-18.7,5.7-24.2,11.2c-5.5,5.5-4.5,34.4-4.4,42.2
		c0,7.8-9.2,10.7-14,13.4c-4.7,2.7,0.4,16.1,3.1,25.1s1.6,23.2,1,28.8c-0.1,0.5-0.1,1-0.2,1.5c2.4,0.4,4.2,1.4,5.6,2.8
		c1.9-2.1,4-5.7,6.7-10.6C855,375.7,882.7,360.5,888.3,355.2z"/>
	<g id="SHADE_11_">
		<path class="st11" d="M799.9,491.9c-0.2,2.4,10.9,5.5,24.8,7c13.9,1.5,25.5,0.7,25.8-1.7c0.1-1.2-2.6-2.6-7.3-3.9
			c-5.5,3.5-12.9,4.4-22.8,1.6c-4.4-1.3-7.9-3.1-10.7-5.4C803.8,489.7,799.9,490.5,799.9,491.9z"/>
		<path class="st11" d="M868.3,344.6c3.9-0.6,7.3-0.4,7.6-0.4c0.3,0.1,0.5-0.1,0.6-0.2s0-0.5-0.2-0.6c-0.6-0.4-11.8-0.3-17.7,3.7
			c3.6-7.7,7.7-16,12.4-25c1.4-2.6,2.7-5.1,3.9-7.5l0,0c1.4-2.6,2.8-5,4-7.3c2.4-2.3,8.4-4.4,17.4-6.4c6.8-1.5,13-2.3,13.1-2.3
			c0.3-0.1,0.5-0.3,0.4-0.6c-0.1-0.3-0.2-0.5-0.5-0.5c-1,0.1-21.5,2.9-29.4,7.8c7.9-14.2,13.6-23.3,14.2-23.9
			c0.2-0.2,0.3-0.4,0.2-0.6c-0.1-0.3-0.3-0.4-0.5-0.4s-0.4,0.2-2.3,3.3c-1.3,2.2-3.2,5.1-5,8.3c-2.8,4.7-6.7,11.7-11.4,20.3
			c0.1-6.6-2.2-13-4.3-17.6c-2.5-5.4-5.3-9.1-5.3-9.1c-0.2-0.2-0.4-0.2-0.6-0.1s-0.2,0.5-0.1,0.7c0.1,0.1,10.6,14.3,9.2,27.8
			c-1.1,2.1-2.3,4.4-3.5,6.6c-4.2,8-8.9,17.5-13.5,27.6c0,0.1,0,0.1,0,0.1c-1.3,2.9-2.6,5.7-3.9,8.7c-1.2-10.3-6.6-15.5-6.9-15.7
			c-0.2-0.2-0.5-0.2-0.6,0c-0.2,0.3-0.2,0.6,0,0.7c0.1,0,6,5.7,6.7,16.6c-4.9,11.2-9.4,22.9-13.1,34.5c0.3,0.1,0.5,0.2,0.8,0.3
			c3.5-11.1,9-26,17.6-44.7C860.2,346.2,864.8,345,868.3,344.6z"/>
		<path class="st11" d="M785,327.2c0,0.3,0.1,0.5,0.4,0.5c6.2,0.9,16.4,2.5,17.7,3.1c0,0,0,0.1,0.1,0.1c0,0.1,0.1,0.1,0.2,0.1
			c0.1,0,0.2,0,0.3-0.1c4,7.8,8.4,17.5,13.1,29.4c0.1,0.2,0.1,0.4,0.2,0.6l0.1,0.1c0.1,0.2,0.1,0.4,0.2,0.6c0.1,0.2,0.1,0.3,0.2,0.5
			c0,0.1,0,0.1,0,0.1c0.1,0,0.1,0.1,0.1,0.1c0,0.1,0.1,0.1,0.1,0.2c0,0.1,0,0.1,0,0.1l0,0c0.6,1.4,1.2,2.8,1.6,4.2
			c-5.5-2.4-11.4-5.2-12-5.9c-0.1-0.2-0.2-0.3-0.4-0.2s-0.4,0.3-0.3,0.6c0,0.4,0,0.7,6.6,3.8c3.1,1.4,6.3,2.9,6.3,2.9l0.1,0
			c0.1,0,0.1-0.1,0.2-0.1c4.5,11.8,7.6,21.4,8.8,25.3c0.3-0.2,0.6-0.2,0.8-0.3c-1.4-4.5-5.5-16.9-11.2-31.4l3.3-15
			c0-0.2,0-0.5-0.3-0.5c-0.2,0-0.5,0.1-0.5,0.3l-3,13.8c-3.8-9.6-8.8-21.2-14.5-32c0.1-0.1,0.2-0.3,0.2-0.4L806,310
			c0.1-0.3,0-0.5-0.3-0.5c-0.3-0.1-0.5,0.1-0.5,0.3l-2.7,17.1c-4.3-8.2-9-15.9-13.9-21.8c-0.2-0.2-0.4-0.2-0.6-0.1
			c-0.2,0.2-0.2,0.5-0.1,0.7c3.8,4.6,8.9,12.1,15.1,24.1c-1-0.3-3.3-0.8-8.6-1.7c-4.4-0.8-8.9-1.4-8.9-1.4
			C785.3,326.8,785.1,327,785,327.2z"/>
	</g>
</g>
<g id="peeps_4_1_">
	<path id="color-2_2_" class="st4" d="M760.8,426.4c0,0-19.2,12.6-35.5,2.1c0,0-1.9,9.5-0.9,23.4c0.9,12.6,3,44.5,2.6,56.4
		c2,0.6,5.4,1.1,9.3,0c1.3-14.5,6.3-50.4,9.4-58.8c0,0,8.4,25.7,9,37.7c0.4,7.6,0.5,13.9,0.5,17.5c2.2,0.8,5.7,1.8,8.8,1.3
		c-0.1-15.1-0.5-49.5,0.1-57.4C764.8,438.8,764.8,433.2,760.8,426.4z"/>
	<path id="color-1_2_" class="st3" d="M764.8,379.4c-1.3,3.8-4.1,8.8-4.5,10.6c-0.4,2.2-4.6,5.3-5.6,8.6c-1,3.2-7.3,12.2-13.2,10.3
		c0,0,3-2.4,2.5-5.2c-0.4-2.1-4.1,1.1-7.6-3.2c-1.9-2.4-2-8-5.2-9.6c-3.2-1.5-6.6-6.6-6.9-10.1c0-0.1,0-0.3,0-0.4
		c-3.7,0.4-8.8-1.3-8.8-1.3l-4.3,11.2c0,0,8.5,5.2,13.1,12.7c4.7,7.5,0.9,25.7,0.9,25.7c16.3,10.6,35.5-2.1,35.5-2.1
		c-1.2-4.7,0.7-15.4,2.5-23.3l7-1.1C770.2,390.1,768.3,383.9,764.8,379.4z"/>
	<g id="color-skin_2_">
		<path class="st1" d="M769.7,402.1l-6.5,1c-1.7,7.9-3.7,18.6-2.5,23.3c0.2,0.4,0.5,0.8,0.7,1.2
			C770.8,417.9,769.7,402.1,769.7,402.1z"/>
		<path class="st1" d="M679.4,341.8l-9.7-14.4c0,0-1.4-0.9-2.3,0c-0.9,0.9,3.1,7.3,3.1,7.3s-7.4,3.6-4.4,8.1c3,4.4,8.3,3.5,10.3,6.4
			c1.9,2.7,17.9,30.8,35.6,39l3.6-9.2C715.6,378.9,697.4,373.7,679.4,341.8z"/>
	</g>
	<g id="color-hair_2_">
		<path class="st0" d="M764.6,367.9c-0.7-1.7-0.7-4.5-0.3-6.7c0.4-2.2,1.4-3.4,1-6.9c-0.4-3.5-4.4-5.5-6-10
			c-1.7-4.5-5.9-10.5-17.9-11.5c-11.9-1-18.8,13.4-18.8,13.4c-8,11.8,0.7,21.5,1.8,23.5c1.1,2-0.3,7.6,0,11.1
			c0.3,3.5,3.6,8.6,6.9,10.1c3.2,1.5,3.3,7.1,5.2,9.6c3.4,4.4,7.2,1.1,7.6,3.2c0.5,2.9-2.5,5.2-2.5,5.2c5.9,2,12.2-7,13.2-10.3
			c1-3.2,5.2-6.3,5.6-8.6c0.4-2.2,4.6-9.3,5-12.9C765.8,373.4,765.3,369.6,764.6,367.9z"/>
		<path class="st0" d="M755.2,504.7c0,0.6,0,1.1,0,1.5c0,0.9-0.8,1.6-1.7,1.5c-1-0.1-2.4-0.1-3.5,0.3c-0.7,0.3-1.2,1.1-0.9,1.8
			c1.2,4.5,9.2,6.7,11.6,6.4c2.4-0.3,3,0.3,3.2-3.4c0-0.7,0-3.2,0-6.9C760.9,506.5,757.4,505.5,755.2,504.7z"/>
		<path class="st0" d="M727,508.3c0,0.6,0,1.1-0.1,1.6c-0.1,0.8-0.7,1.4-1.5,1.4c-1.2,0-3,0.2-4.2,0.7c-0.5,0.2-0.8,0.7-0.9,1.3
			c-0.1,2.7,3.9,6.4,12.5,5.9c1-0.1,2-0.7,2.4-1.6c0.4-0.8,0.7-2,0.6-3.7c0-0.9,0.1-2.9,0.3-5.5C732.3,509.4,729,508.8,727,508.3z"
			/>
	</g>
	<g id="SHADE_10_" class="st12">
		<path class="st13" d="M741.9,404.5c1,0.1,1.6,0.3,2.1,0.5c0.1-0.4,0.1-0.9,0-1.3c-0.4-2.1-4.1,1.1-7.6-3.2
			C736.5,400.4,739.1,404.2,741.9,404.5z"/>
		<path class="st13" d="M752.7,404.9c2.2-3.4,4.6-9,6.4-9.9s2.6-7,3.7-8.6c0.8-1.1,2.4-2.6,3.7-4.7c-0.5-0.9-1-1.7-1.6-2.5
			c-1.3,3.8-4.1,8.8-4.5,10.6c-0.4,2.2-4.6,5.3-5.6,8.6c-0.8,2.5-4.7,8.4-9.2,10.1l0,0C745.5,408.7,750.5,408.3,752.7,404.9z"/>
		<path class="st13" d="M766.1,390.1l-2.8,13.1l3.4-0.5C766.8,398,766.1,390.1,766.1,390.1z"/>
		<path class="st13" d="M769.7,402.1l-6.5,1c-1.7,7.9-3.7,18.6-2.5,23.3c-1.1-6.6,2.9-22.1,2.9-22.1l6.1-0.3
			C769.8,402.8,769.7,402.1,769.7,402.1z"/>
		<path class="st13" d="M710.9,387.6c0.4,0.2,0.7,0.4,1.1,0.5l3.6-9.2c0,0-1-0.3-2.9-1.2L710.9,387.6z"/>
		<path class="st13" d="M725.3,428.5L725.3,428.5c0,0,11,7.8,23.2,4.2c5.9-1.7,9.9-4,12.5-5.9c-0.1-0.1-0.1-0.2-0.2-0.3
			C760.8,426.4,741.6,439.1,725.3,428.5z"/>
		<path class="st13" d="M755.2,504.7c0,0,4.4,3,8.8,1.7c0-0.1,0-0.2,0-0.4C760.9,506.5,757.4,505.5,755.2,504.7z"/>
		<path class="st13" d="M727,508.3c0,0,4.6,2.4,9.2,0.6c0-0.2,0-0.4,0.1-0.6C732.3,509.4,729,508.8,727,508.3z"/>
		<path class="st13" d="M784.8,512.2c-7.9-5.2-13.7-5.5-20.8-6.8c0,0.2,0,0.4,0,0.6c0,3.7,0,6.2,0,6.9c-0.2,3.7-0.8,3.2-3.2,3.4
			c-2.4,0.3-10.4-1.9-11.6-6.4c-0.2-0.8,0.2-1.6,0.9-1.8c1.1-0.4,2.4-0.4,3.5-0.3c0.9,0.1,1.6-0.6,1.7-1.5c0-0.4,0-0.9,0-1.5
			c0-0.4,0-0.8,0-1.3c-3.3-0.7-6.1-0.7-9.6-0.6c-2.9,0.1-4.7,0.3-8.9,1c-0.2,1.6-0.3,3.1-0.5,4.5c-0.2,2.6-0.4,4.6-0.3,5.5
			c0.1,1.8-0.2,2.9-0.6,3.7c-0.5,0.9-1.4,1.5-2.4,1.6c-8.6,0.6-12.6-3.2-12.5-5.9c0-0.5,0.4-1,0.9-1.3c1.2-0.5,2.9-0.7,4.2-0.7
			c0.8,0,1.4-0.6,1.5-1.4c0-0.5,0.1-1,0.1-1.6c0-0.8,0-1.6,0.1-2.6c-5.3,0.9-10.4,1.4-13.8,0.8c-8.3-1.6-31.9-4.2-29.1-0.2
			c2.7,4,21.8,6,23.2,11.2c1.4,5.1,16.2,10.4,24.3,8.1s19-4.3,31.6-2.3C775.9,525.3,794,518.3,784.8,512.2z"/>
	</g>
</g>
<g id="peeps_3_2_">
	<path id="color-2_1_" class="st4" d="M519.3,482.8c0.7-10.2,3.3-39.2-3.4-54.1c0,0-13.8,4.5-27.8,0.2c0,0-1.6,41.1-2.6,53.3
		c-0.9,12.2-6.2,28.4-6.2,28.4s6.5,7.8,16.2,0.8c0,0-1.6-21.5,0.2-34.6c1.5-11.5,4.5-29.3,5.2-33.6c0.2-1,0.6-1.9,1.4-2.5
		c1.1-0.9,2.9-1.4,5.1,2c3.6,5.8,4,29.4,3.9,35.2c-0.1,3.8-4.6,32.9-4.6,32.9s10.7,5.5,17.8-2.5C524.5,508.4,518.6,493,519.3,482.8z
		"/>
	<path id="color-1_1_" class="st3" d="M487.9,374c0,0,0.3-8.8,10.8-8.7s11.4,6.3,11.4,6.3s13,5.4,14.6,6.9
		c2.9,2.7,3.7,15.1,3.7,15.1s1.5,9.2,5,9.1c3.5-0.1,7.1-4.2,7.1-4.2l9.8,6.2c0,0-9.3,10.8-18.3,8.6c-4.2-1-11-7.2-12-14.4l-4.2,29.8
		c0,0-13.8,4.5-27.8,0.2l-12.9-29.1c0,0-15.8,13.7,4.5,23.2c-0.1,4.8-0.4,11.9-0.4,11.9s-21.6-4.7-20-24.7
		C460.9,390.4,473.9,378.1,487.9,374z"/>
	<g id="color-skin_1_">
		<path class="st1" d="M552.3,394c-0.2-3.5-5.5-6-5.5-6s0.7-7-0.4-7.1c-1.1-0.1-1.9,5.5-2.6,7.7c-0.7,2.2-3.3,9.9-3.3,9.9l5.4,3.5
			C548.3,401,552.5,397.2,552.3,394z"/>
		<path class="st1" d="M486.3,425.1c-2.8-1.3-6.7-2-6.7-2c-0.1,2.9-0.2,6.6-0.3,9.1c2.2,1.1,6.4,4.4,8.4,5c0.2-5,0.3-8.2,0.3-8.2
			L486.3,425.1z"/>
	</g>
	<g id="color-hair_1_">
		<path class="st0" d="M467.6,344.8c2.9,2.7,3.4,5.1,2.7,7.1c-0.7,2-0.2,8.1,6.1,9.8c6.3,1.7,6.7,3.3,7.7,4.7c0.9,1.1,2.3,2.2,6,2.2
			c1.5-1.8,4.2-3.4,8.6-3.3c5,0,7.8,1.5,9.4,2.9c0.2-0.1,0.4-0.2,0.6-0.3c3-1.9,2.5-6.6,4.2-8.7c1.7-2.1,2.7,0,4.6-2.8
			c1.9-2.8,3.4-8.6,0.6-12.1c-2.9-3.5-3.8-7.7-2.9-10c0.9-2.3,1.6-6.3-3.1-11.6c0,0-3.8-3.4-9.4-2.5c-5.6,0.8-8.4,1.9-10.7,0.4
			c-2.3-1.5-9.7-3.5-13.3-0.6c-3.6,2.9-4.6,5.7-5,7.1c-0.4,1.4,0.7,5.3-3.9,7.6C465.3,337,464.7,342.1,467.6,344.8z"/>
		<path class="st0" d="M528,515.6c-1-1.5-7.3-1-7.3-1l0-3.2c-3.3,1.6-6.7,1.5-9.4,1c0,2.3,0.3,7.7,0.3,7.7s-0.5,1.9,5,1.7
			C521.9,521.5,529,517.1,528,515.6z"/>
		<path class="st0" d="M492.2,515.4l0-2c-3.9,1.7-7.2,1-9.4-0.1c0,2.3,0.3,7.7,0.3,7.7s-0.5,1.9,5,1.7c5.5-0.2,12.6-4.6,11.5-6.1
			C498.5,514.9,492.2,515.4,492.2,515.4z"/>
	</g>
	<g id="SHADE_9_" class="st12">
		<path class="st13" d="M510.1,371.6c0,0-0.9-6.2-11.4-6.3c-10.5-0.1-10.8,8.7-10.8,8.7S499.6,369.3,510.1,371.6z"/>
		<path class="st13" d="M520.1,399l-2.1-4c0,0,0.4,8.5,0.4,16.2L520.1,399z"/>
		<path class="st13" d="M472.2,403.2c1.5-2,2.9-3.3,2.9-3.3l-2.6-6.2C472.5,393.7,473.2,399,472.2,403.2z"/>
		<path class="st13" d="M540.6,398.5l5.4,3.5c0.7-0.3,1.6-0.9,2.4-1.6C545.6,399.8,540.6,398.5,540.6,398.5z"/>
		<path class="st13" d="M479.6,423.1c-0.1,2.9-0.2,6.6-0.3,9.1c0.8,0.4,1.9,1.1,3.1,1.9l-1.6-10.8
			C480.1,423.2,479.6,423.1,479.6,423.1z"/>
		<path class="st13" d="M488.1,429c0,0,3.6,4.7,14.9,3.9c7-0.5,11-2.4,13-3.8c0-0.1-0.1-0.2-0.1-0.3
			C515.9,428.8,502,433.3,488.1,429z"/>
		<path class="st13" d="M511.2,512.4c0,0.2,0,0.5,0,0.8c1.8,0.6,5.6,1.6,9.4,0.4l0-2.2C517.3,513,513.9,512.9,511.2,512.4z"/>
		<path class="st13" d="M482.7,513.2c0,0.3,0,0.7,0,1.1c1.8,1.1,5.1,2.5,9.4,0.9l0-1.8C488.2,515,485,514.3,482.7,513.2z"/>
		<path class="st13" d="M492.2,515.4l0.2,2.8c0,0,6-1.9,6.6-1.1c0.1,0.2,0.2,0.3,0.2,0.5c0.4-0.5,0.5-0.9,0.3-1.2
			C498.5,514.9,492.2,515.4,492.2,515.4z"/>
		<path class="st13" d="M520.6,514.6l0.2,2.8c0,0,6.3-2.1,6.6-1.1c0.1,0.3,0.1,0.6,0,0.8c0.6-0.6,0.8-1.2,0.6-1.5
			C526.9,514.1,520.6,514.6,520.6,514.6z"/>
		<path class="st13" d="M567.7,520.7c1-0.7,1-2.1,0.1-2.8c-7.9-6.1-20.4-2.6-27.2-4.6c-6-1.7-12.6-1.5-20-1.6l0,3c0,0,6.3-0.4,7.3,1
			c1,1.5-6.1,5.9-11.5,6.1c-5.5,0.2-5-1.7-5-1.7s-0.2-5.4-0.3-7.7c0,0,0,0,0.1,0c-0.5-0.1-1-0.2-1.4-0.3c-4.5,0.5-11,1.1-17.7,1.7
			l0,1.6c0,0,6.3-0.4,7.3,1c1,1.5-6.1,5.9-11.5,6.1c-5.5,0.2-5-1.7-5-1.7s-0.2-3.7-0.2-6.3c-7.5,0.7-14.2,1.2-16.9,1.3
			c-8.1,0.2-13.7,3.3-9.6,7.1c4.1,3.8,18.3,1.8,23.1,5.8c4.8,4.1,56.9,0.6,61.2-3.5C544.5,521.6,561.6,524.6,567.7,520.7z"/>
	</g>
</g>
<g id="peeps_2_1_">
	<g id="peeps_3-2">
		<path id="color-2-5" class="st4" d="M411,502.2c1.5-6.9-7.7-17.3-7.7-17.3c-12.8,16.1-25.6,14.1-25.6,14.1s-1.3,8.2-10.6,8.3
			c-9.4,0.1-8.9-9.5-8.9-9.5c-7.5,0.9-23.3-9.3-23.3-9.3L323.1,505l17.5,13.9c0,5.7,8.1,19.4,8.1,19.4v7.6l15.5-0.4
			c0,0,7.8,0.3,10.6,7.7c12.6-3.8,17.5-15.1,17.5-15.1s-4.9-3.2-5.6-5.1c-0.7-1.9-0.1-8.8-0.1-8.8C389.5,518.1,411,502.2,411,502.2z
			"/>
		<path id="color-1-4" class="st3" d="M428,573.6c0,0-8-4.5-11.5-7c-3.5-2.5-17-9.4-19.7-11.3c-2.7-1.9-4.9-9-5.3-10.9
			c-0.3-1-0.7-2-1.3-2.9c-3.6,5.5-9.1,9.6-15.4,11.5c0.1,0.3,0.2,0.5,0.3,0.7l1.4,3.1l11.9-1.4c0,0,4.2-0.3,3,2.3
			S380,570.7,380,570.7s-1.5,1.3-6,1.5c-0.7,0-1.9,0.1-3.4,0.1c-4.8,0.1-12.9,0-19.1,0c-2.1,2.8-2.8,6.4-1.9,9.7
			c-1.3-0.1-2.6-0.2-3.9-0.5c-1.4,1.4-3.2,3.8-3.3,6.5c-0.2,4.2,4.6-0.8,8-1.7c2-0.5,12-1.9,19.9-3c7.6,0.5,14.8,1.3,15.7,1.9
			c2,1.4,5.7,10.3,8,8.3c2.3-2,3.4-12.8-1.5-16.6c0,0-2.1-0.2-5.2-0.2c-2.7-0.3-5.4-0.8-8-1.6c3.3-2,9.5-5.2,13.2-3.9
			c5.4,1.9,12.7,10.2,12.3,11.7c0,0,12.5-1.1,16.6-4.3c4.1-3.2,6-2.6,6.5-3.2C428.4,575,428,573.6,428,573.6z M352.9,582.4
			c1.8,0.1,5.4,0.3,9.5,0.5C358.2,582.7,354.7,582.5,352.9,582.4L352.9,582.4z"/>
		<path id="color-white-5" class="st2" d="M332.9,546.2l31.2-0.7c0,0,8.4,0.3,10.9,8.4l1.4,3.1l11.9-1.4c0,0,4.2-0.3,3,2.3
			s-11.3,12.9-11.3,12.9s-1.5,1.3-6,1.5c-4.5,0.3-31,0-31,0s-3.6,0-6.8-4.3c-3.2-4.3-9.5-16.5-9.5-16.5S323,546.4,332.9,546.2z"/>
		<g id="color-skin-3">
			<path class="st1" d="M370.9,493.6c5.6-1.6,9.6-6.5,10-12.2c0.6-7.7-0.6-13.6-12.8-15.1c-12.2-1.5-14.5,5-15.1,12.8
				c-0.5,6.3,3.2,12.1,9.1,14.3c0,1.6-0.6,4.1-4.1,4.5c0,0-0.5,9.7,8.9,9.5c9.4-0.2,10.6-8.3,10.6-8.3S371.8,498.4,370.9,493.6z"/>
			<path class="st1" d="M342.8,572.3c-1-0.1-2.1-0.4-3-0.9c-1.8,1.4-3.7,3.6-3.1,7c0.8,2.4,8.8,3.3,12.7,3.7c-1-3.4-0.3-7,1.9-9.7
				C346.5,572.4,342.8,572.3,342.8,572.3z"/>
			<path class="st1" d="M392.5,571.5c-3.8-1.4-9.9,1.8-13.2,3.9c2.6,0.8,5.3,1.3,8,1.6c1.4,0,2.4,0,3.3,0.1c1.5,0.1,2.8,0.8,3.6,2.1
				c1.1,2,1.7,4.3,1.7,6.7c6,0.9,9-2.6,9-2.6C405.2,581.7,397.9,573.4,392.5,571.5z"/>
			<path class="st1" d="M435.3,456.2c-10.4,3.1-26.1,24.3-30.6,30.5c1.6,2,3,4.2,4.2,6.5c8.4-9.5,26.5-23.9,31.3-27.2
				C446.4,461.9,447.5,452.6,435.3,456.2z"/>
			<path class="st1" d="M299.6,461.2c-4.8,0.9-9.3,3.4-3,11.1c5.1,6.2,23.5,18.9,32,25.1l5.9-8.2
				C326.5,481.8,303.5,460.5,299.6,461.2z"/>
		</g>
		<path id="color-hair-5" class="st0" d="M361.2,496.3c0.6-0.9,1-1.9,1-3c-5.9-2.2-9.6-8-9.1-14.3c0.6-7.7,3.1-14.2,15.1-12.8
			c12.1,1.4,13.4,7.4,12.8,15.1c-0.5,5.7-4.5,10.6-10,12.2c0.9,4.8,6.8,5.5,6.8,5.5c1,0.1,2,0.1,3.1,0c3.5-1.7,6.3-5.3,7.3-6.9
			c1.7-2.8,0.1-6.8,4.5-14.1c4.4-7.4-3.2-14.6-7.7-21.6c-4.5-7-10.7-6.3-25.1-3c-14.4,3.3-11.5,18.3-12.3,22.4s-5.4,6.8-2,14.9
			S361.2,496.3,361.2,496.3z"/>
		<g id="SHADE-3">
			<path class="st10" d="M352.5,563.5c2.3,0,4.1-1.4,4.1-3.2s-1.8-3.2-4.1-3.2s-4.1,1.4-4.1,3.2S350.3,563.5,352.5,563.5z"/>
			<path class="st10" d="M373.4,497.5c-1.3-0.9-2.2-2.2-2.5-3.8c-1.7,0.5-3.4,0.6-5.1,0.5c-1.2-0.1-2.5-0.4-3.6-0.8
				c0,0.7-0.1,1.5-0.5,2.2C365.4,497.3,369.4,498,373.4,497.5z"/>
			<path class="st10" d="M387.6,512.2l-1.1,12c1-1.7,2.3-3.2,3.7-4.6C388.4,516.9,387.6,512.2,387.6,512.2z"/>
			<path class="st10" d="M345.5,507.4c0,0-4.2,2.4-5.3,4.8c-0.6,1.4-2.8,2.3-4.8,2.6l5.1,4.1C340.6,519,340.6,511,345.5,507.4z"/>
			<path class="st10" d="M388.2,555.5l-11.9,1.4l3.2,13.1c0,0,10-10.2,11-12.3c0.2-0.6,0.3-1.2,0.2-1.8
				C389.9,555.6,389,555.5,388.2,555.5z"/>
			<path class="st10" d="M375,554c2.9-0.6,12.2-2.7,17.8-5.1c-0.7-1.9-1.2-3.5-1.4-4.3c-0.3-1-0.7-2-1.3-2.9
				c-3.6,5.5-9.1,9.6-15.4,11.5C374.8,553.5,374.9,553.8,375,554L375,554z"/>
			<path class="st10" d="M351.4,572.4c-0.1,0.2-0.3,0.4-0.4,0.5C351.1,572.7,351.2,572.5,351.4,572.4c-4.9,0-8.5-0.1-8.5-0.1
				c-0.6,0-1.1-0.2-1.6-0.4c-0.3,0.4-0.5,0.9,2,1.1c2.9,0.1,21.5-0.1,28.3-0.2c-0.4-0.1-0.6-0.3-1-0.4c0.3,0.1,0.6,0.3,1,0.4
				l7.8,2.5c1,0.3,1.9,0.5,2.8,0.7c4.1-1.4,8.3-2.6,12.6-3.5c-0.7-0.4-1.4-0.8-2.2-1c-0.2-0.1-0.4-0.1-0.5-0.2l0.1-0.2
				c0,0,5-5,10.4-5.8c0,0,2.3-1-1.3-3c-3.2-1.8-8.9-5.4-10.3-6.3c0.5,0.4,0.6,0.9,0.2,1.8c-1.3,2.6-11.3,12.9-11.3,12.9
				s-1.5,1.3-6,1.5c-0.7,0-1.9,0.1-3.4,0.1C365.7,572.5,357.6,572.5,351.4,572.4z"/>
			<path class="st10" d="M411.9,490.2l-6.1-4.8c-0.4,0.5-0.7,1-1,1.4c1.6,2,3,4.2,4.2,6.5C409.8,492.3,410.8,491.2,411.9,490.2z"/>
			<path class="st10" d="M334.3,489.2c-0.7-0.6-1.5-1.4-2.4-2.3c-0.7,1.7-3.2,7.1-4.3,9.8c0.3,0.2,0.6,0.5,0.9,0.7L334.3,489.2z"/>
			<path class="st10" d="M464.4,573.7c-0.4-2-2-3.6-4-3.9c-2.8-0.5-5.9,0.4-8.6,0.7c-3.2,0.4-6.3,0.5-9.4,0.6
				c-6.4,0-12.8-0.7-19-2.1c-2-0.5-4-1-5.9-1.6c3.8,2.5,10.5,6.3,10.5,6.3s0.5,1.4,0,2c-0.5,0.6-2.3,0-6.5,3.2
				c-4.1,3.2-16.6,4.3-16.6,4.3l0,0c0.3-1.1-3.3-5.5-7.4-8.7c0.1,0.1,4.1,5,4.7,10.6c-2,0.9-4.2,1.1-6.3,0.7c0.1,3.5-0.7,6.8-2,7.9
				c-2.3,2-6-6.9-8-8.3c-0.9-0.6-8.1-1.4-15.7-1.9l0,0c-9-0.6-18.5-1.2-18.7-1.2s-0.9-0.1-2-0.2c-1.3-0.1-2.6-0.2-3.9-0.5
				c-3.9-0.5-8.3-1.4-8.8-3.2c-0.6-3.4,1.4-5.6,3.1-7l0,0c-1.3-0.7-2.5-1.7-3.4-2.8c-7.5,1.1-14.9,2.1-22.5,3.2
				c-3.3,0.5-6.6,0.9-9.9,1.4c-1.5,0.2-3.1,0.6-4.6,1c-1.4,0.3-2.7,0.7-4,1.3c-1.3,0.7-1.9,2.3-1.2,3.6c0.1,0.3,0.3,0.6,0.6,0.8
				c1.7,2,4.8,1.4,7.1,1.3c6.7-0.3,13.4,0,20,0.8c2.9,0.4,6.2,0.7,7.7,3.6c1.1,2.3,1.2,4.9,3.3,6.6c2.2,1.7,4.8,2.5,7.2,3.4
				c2.8,1,5.7,1.7,8.6,2.3c5.8,1,11.7,1.5,17.6,1.4c6,0,12.2-0.5,18.2-0.9c6.4-0.4,12.8-1.1,19.2-2.3c6.4-1.3,12.5-3.4,18.7-5.5
				l19.2-6.5c6.5-2.2,12.9-4.3,19.4-6.5C462.8,577,464.7,576,464.4,573.7z M350.4,586.5c-3.4,0.9-8.2,5.9-8,1.7c0.2-2,1-4,2.4-5.5
				c4.6,1.3,9.2,2.1,14,2.4C354.7,585.7,351.4,586.2,350.4,586.5z M368.8,583.7L368.8,583.7c0.3,0,0.5-0.1,0.9-0.1
				C369.4,583.6,369.1,583.7,368.8,583.7z"/>
		</g>
	</g>
</g>
<g id="peeps_1_1_">
	<g id="peeps_1-2">
		<path id="color-2" class="st4" d="M205.7,560.3c0,0,10.6,0.9,16.2,3.7l0,0c4.6-0.9,9.2-1.3,13.9-1c0,0,2.7-4.8,10.1-6.8
			c-0.1-6,0.8-15.5,5.2-23.7c0,0,0,6.5,1.7,9.3c1.5,2.6,7.8,9.3,3.9,13.6c0.4,0,0.9,0.1,1.2,0.1c4.2,0.5,8.4,1.3,12.6,2.4
			c1.2-2.6,1.1-5.7-0.2-8.2c-2.4-4.2-7.5-16.8-7-23.3c0.4-6.5,3.2-20-1-23.8c-3.6-3.2-14.7-5.5-18.7-9.2c-1.4,1-2.9,1.8-4.4,2.5
			c0.1,0,0.1,0,0.2-0.1c-1.9,3.4-5.6,5.4-9.5,4.9c-6.4-0.6-6.8-6.3-6.6-9.3l0.1,0.1c-0.5-0.8-1-1.6-1.4-2.4
			c-2.1,1.3-7.7,4.9-10.1,5.1c-2.9,0.3-21,5.4-25.6,11.6c-4.7,6.2-19.7,28.2-15.5,46.3c4.2,18.1,30.7,17.6,30.7,17.6
			c1,0.1,2-0.1,2.9-0.6c1-1.7,1.6-3.6,1.8-5.5c0.1-1,0.1-2-0.1-2.9L205.7,560.3z M197.6,557.9c0,0-26.2-5.7-6.9-26.6
			c1,7.5,7.1,21,10.4,26.7C199.9,557.8,198.7,557.8,197.6,557.9z"/>
		<path id="color-1" class="st3" d="M255.2,579.2c-8.9-0.2-25.9-0.5-25.9-0.5c-1.4,0-2.6-0.7-3.4-1.8c-0.6-1-2.2-3.1-3.5-5.2
			c-5,1.8-14.7,0-18.4-2.5c-0.9,0.6-1.9,0.8-2.9,0.6h-0.3c-2.7,2.9-8.5,10.2-7.6,13.9c1.3,4.8,4.7,10.4,11.6,9.4
			c6.9-1,38.4-6.8,45.2-4.8c0,0,4.5-1.2,0.5-6.9C252.2,580.6,253.7,579.9,255.2,579.2z"/>
		<path id="color-white" class="st2" d="M257.8,555.6c-16.8-2.2-22.1,7.4-22.1,7.4c-4.6-0.3-9.3,0-13.9,1c2.2,1.1,3.6,2.5,3.5,4.3
			c-0.1,1.6-1.3,2.7-3,3.4c1.3,2.1,2.8,4.2,3.5,5.2c0.8,1.1,2,1.8,3.4,1.8c0,0,26.1,0.4,30.5,0.6s6.3-1.8,6.3-1.8
			s11.4-11.6,11.3-14.4S274.6,557.8,257.8,555.6z"/>
		<g id="color-skin">
			<path class="st1" d="M254.4,477.5c-12.9-2.4-13.6-12.2-21.4-10.3c-7.8,1.9-6.7,10.9-13.9,11.5c0,0,0.2,7.4,3.8,12.8
				c-0.2,2.9,0.2,8.7,6.6,9.3c3.9,0.4,7.6-1.5,9.5-4.9l0,0c8.1-3.4,15.1-12.8,16.1-18.2l0,0C255,477.6,254.7,477.6,254.4,477.5z"/>
			<path class="st1" d="M205.7,560.3l0.1,0.4c0.2,1,0.2,1.9,0.1,2.9c-0.2,1.9-0.8,3.8-1.8,5.5c5,3.2,20.9,5.5,21.3-0.9
				C225.8,561.9,205.7,560.3,205.7,560.3z"/>
		</g>
		<g id="color-hair">
			<path class="st0" d="M267.3,462.6c-1.9-8-14.7-8.1-14.7-8.1c-3.1-3.4-14.1-9.1-20.8-7.9c-6.7,1.2-10.9,5.2-14.6,16.1
				c-3.7,10.9,1.9,16.1,1.9,16.1c7.1-0.6,6.1-9.5,13.9-11.5c7.8-1.9,8.4,7.9,21.4,10.3C267.4,480,269.2,470.6,267.3,462.6z"/>
			<path class="st0" d="M267,586.7c-1.4-2.9-3.6-5.4-6.4-7.1h-0.9c-1.4-0.1-4.5-0.2-4.5-0.2c-2.4,1.1-4.5,2.2-4.5,2.2
				c2.6,3.7,1.7,5.4,0.6,6.3c1.2,0.9,2.6,1.6,4.1,1.9c2.6,0.6,9.5,6.1,11.1,5.1S270.1,592.5,267,586.7z"/>
			<path class="st0" d="M205,596.6c0.8,5.1,6.4,1.2,7,0c0.4-0.8,2.6-3.6,4-5.4c-5,0.8-9.1,1.5-11.3,1.8
				C204.8,594.3,204.9,595.5,205,596.6z"/>
		</g>
		<g id="SHADE_7_">
			<path class="st10" d="M278.9,575.3c-1.8-2-4-3.6-6.3-5c-3.1,3.7-6.6,7.2-6.6,7.2s-1.6,1.8-5.4,1.9h-0.9c-1.4-0.1-4.5-0.2-4.5-0.2
				c-8.9-0.2-25.9-0.5-25.9-0.5c-1.4,0-2.6-0.7-3.4-1.8c-0.6-1-2.2-3.1-3.5-5.2c-5,1.8-14.7,0-18.4-2.5c-0.9,0.6-1.9,0.8-2.9,0.6
				h-0.3c-0.4,0.4-1,1.1-1.5,1.7c1.4,0.2,3.6,0.3,4.7-0.5l1.3,0.6c0,0-3.2,5.2-3.2,5.5c0,0.3-0.4,1.2,1.4,1.3
				c1.8,0.1,22.7-0.4,22.7-0.4s-0.2,1.9,3.9,1.9H249l1.7,1.5c2.6,3.7,1.7,5.4,0.6,6.3c-0.4,0.3-0.8,0.5-1.2,0.6
				c-4.9-1.4-21.9,1-34,2.9l0,0c-5,0.8-9.1,1.5-11.3,1.8h-0.1c-6.9,1.1-10.4-4.7-11.6-9.4c-0.8-3,2.9-8.3,5.8-11.8
				c-7.4,1.5-20,4.8-19.6,10.3c0.6,7.7,18.4,9.6,19,12.1c0.6,2.5,1.6,6.7,8.5,7.4c6.9,0.6,21.2,2.5,41,0c19.8-2.5,22.9-4.1,26-11.9
				C277.1,582.1,284.5,581.2,278.9,575.3z M212.1,596.6c-0.6,1.2-6.4,5.1-7,0c-0.1-1-0.2-2-0.1-3c3.2-0.4,6.5-0.5,9.7-0.4l0,0
				C213.5,594.7,212.4,596.2,212.1,596.6z M266.6,594.7c-1.7,1-8.5-4.4-11.1-5.1c-1.2-0.3-2.3-0.8-3.4-1.4c1.8-2.6,1.1-6.6,0.8-8
				c-1.2,0.5-2.1,1-2.3,1.1c0.2-0.1,1.5-0.8,3.1-1.5c2.8,0.4,5.5,0.6,8.3,0.5c2,1.7,3.7,3.8,4.9,6.2
				C270.1,592.5,268.3,593.7,266.6,594.7z"/>
			<path class="st10" d="M252.8,568.5c-0.1,1.4,1.4,2.7,3.5,2.9c2.1,0.2,3.8-0.8,4-2.2c0.2-1.4-1.4-2.7-3.5-2.9
				C254.7,566.1,253,567.1,252.8,568.5z"/>
			<path class="st10" d="M233.1,502.3c5.5,0.1,10.7-2.2,14.3-6.3c-1.4-0.6-2.8-1.4-4-2.4c-1.4,1-2.9,1.8-4.4,2.5
				c-2.5,1.1-5.4,1.5-8.1,1c-3.2-0.7-5.9-2.6-7.7-5.3c-0.5-0.8-1-1.6-1.4-2.4C221.7,489.2,220.1,502.3,233.1,502.3z"/>
			<path class="st10" d="M253.4,531.3c0.5-4.2,0.6-16.4,0.6-16.4c-0.4,3.6-3,17.7-3,17.7s0,5.3,1.3,8.4
				C252.5,537.5,253.1,533.7,253.4,531.3z"/>
			<path class="st10" d="M193.1,540.5c0-4.3,0.4-8.5,1.3-12.7c1.1-3.6,0-9.1,0-9.1c0.2,2.8-3.8,12.7-3.8,12.7
				C191.2,534.5,192,537.5,193.1,540.5z"/>
			<path class="st10" d="M222.5,571.7c0,0.1,0,0.1,0.1,0.1h0h0.4c4.4,7.2,5.2,6.2,5.2,6.2l7.7-14.9c-4.6-0.3-9.3,0-13.9,1
				c2.2,1.1,3.6,2.5,3.5,4.3C225.2,569.9,224,571.2,222.5,571.7z"/>
			<path class="st10" d="M208.3,560.5c-1.5-0.2-2.6-0.3-2.6-0.3l0.1,0.4c0.2,1,0.2,1.9,0.1,2.9c-0.2,1.9-0.8,3.8-1.8,5.5
				C206.8,567.2,207.8,562.5,208.3,560.5z"/>
		</g>
	</g>
</g>
</svg>
