// Jest Snapshot v1, https://goo.gl/fbAQLP

exports[`Button renders correctly using delete style 1`] = `
<button
  className="undefined undefined "
  icon=""
  type="Button"
>
  
  Hellow World
</button>
`;

exports[`Button renders correctly using flat style 1`] = `
<button
  className="undefined undefined "
  icon=""
  type="Button"
>
  
  Hellow World
</button>
`;

exports[`Button renders correctly using ghost style 1`] = `
<button
  className="undefined undefined "
  icon=""
  type="Button"
>
  
  Hellow World
</button>
`;

exports[`Button renders correctly with circle style and icon 1`] = `
<button
  className="undefined "
  icon="/assets/icons/minus-icon-fill.svg"
  type="Button"
>
  <img
    src="/assets/icons/minus-icon-fill.svg"
    style={
      Object {
        "marginRight": 8,
        "verticalAlign": "middle",
      }
    }
  />
</button>
`;

exports[`Button renders correctly with large size 1`] = `
<button
  className="undefined undefined "
  icon=""
  type="Button"
>
  
  Hellow World
</button>
`;

exports[`Button renders correctly with loading 1`] = `
<button
  className="undefined undefined "
  icon=""
  type="Button"
>
  <div
    className="MuiCircularProgress-root MuiCircularProgress-indeterminate"
    role="progressbar"
    style={
      Object {
        "height": 24,
        "verticalAlign": "middle",
        "width": 24,
      }
    }
  >
    <svg
      className="MuiCircularProgress-svg"
      viewBox="22 22 44 44"
    >
      <circle
        className="MuiCircularProgress-circle MuiCircularProgress-circleIndeterminate"
        cx={44}
        cy={44}
        fill="none"
        r={20.2}
        strokeWidth={3.6}
        style={Object {}}
      />
    </svg>
  </div>
</button>
`;

exports[`Button renders correctly with maximum width 1`] = `
<button
  className="undefined undefined "
  icon=""
  type="Button"
>
  
  Hellow World
</button>
`;

exports[`Button renders correctly with messages 1`] = `
<button
  className="undefined "
  icon=""
  type="Button"
>
  
  Hellow World
</button>
`;

exports[`Button renders correctly with small size 1`] = `
<button
  className="undefined undefined "
  icon=""
  type="Button"
>
  
  Hellow World
</button>
`;
